ankle on the knee, glutes
ankle on the knee, glutes
barbell glute bridge, glutes
barbell hip thrust, glutes
butt lift (bridge), glutes
downward facing balance, glutes
flutter kicks, glutes
glute kickback, glutes
hip extension with bands, glutes
hip lift with band, glutes
knee across the body, glutes
kneeling jump squat, glutes
kneeling squat, glutes
leg lift, glutes
lying glute, glutes
one knee to chest, glutes
one-legged cable kickback, glutes
physioball hip bridge, glutes
piriformis-smr, glutes
pull through, glutes
seated glute, glutes
single leg glute bridge, glutes
step-up with knee raise, glutes