all fours quad stretch, quadriceps
all fours quad stretch, quadriceps
alternate leg diagonal bound, quadriceps
alternate leg diagonal bound, quadriceps
backward drag, quadriceps
barbell full squat, quadriceps
barbell hack squat, quadriceps
barbell lunge, quadriceps
barbell side split squat, quadriceps
barbell squat to a bench, quadriceps
barbell squat, quadriceps
barbell step ups, quadriceps
barbell walking lunge, quadriceps
bear crawl sled drags, quadriceps
bench jump, quadriceps
bench sprint, quadriceps
bicycling, quadriceps
bodyweight squat, quadriceps
bodyweight walking lunge, quadriceps
box squat with bands, quadriceps
box squat with chains, quadriceps
box squat, quadriceps
cable deadlifts, quadriceps
cable hip adduction, quadriceps
car deadlift, quadriceps
chair squat, quadriceps
clean from blocks, quadriceps
clean pull, quadriceps
conan's wheel, quadriceps
depth jump leap, quadriceps
double leg butt kick, quadriceps
dumbbell lunges, quadriceps
dumbbell rear lunge, quadriceps
dumbbell seated box jump, quadriceps
dumbbell squat to a bench, quadriceps
dumbbell squat, quadriceps
dumbbell step ups, quadriceps
elevated back lunge, quadriceps
elliptical trainer, quadriceps
fast skipping, quadriceps
frankenstein squat, quadriceps
freehand jump squat, quadriceps
frog hops, quadriceps
front barbell squat to a bench, quadriceps
front barbell squat, quadriceps
front cone hops (or hurdle hops), quadriceps
front squat (clean grip), quadriceps
front squats with two kettlebells, quadriceps
goblet squat, quadriceps
hack squat, quadriceps
hang clean - below the knees, quadriceps
hang clean, quadriceps
heaving snatch balance, quadriceps
hip flexion with band, quadriceps
intermediate hip flexor and quad stretch, quadriceps
iron crosses (stretch), quadriceps
jefferson squats, quadriceps
jerk dip squat, quadriceps
jogging-treadmill, quadriceps
kettlebell pistol squat, quadriceps
kneeling hip flexor, quadriceps
leg extensions, quadriceps
leg press, quadriceps
leverage deadlift, quadriceps
linear depth jump, quadriceps
looking at ceiling, quadriceps
lunge sprint, quadriceps
lying machine squat, quadriceps
lying prone quadriceps, quadriceps
mountain climbers, quadriceps
narrow stance hack squats, quadriceps
narrow stance leg press, quadriceps
narrow stance squats, quadriceps
olympic squat, quadriceps
on your side quad stretch, quadriceps
on-your-back quad stretch, quadriceps
one half locust, quadriceps
one leg barbell squat, quadriceps
one-arm overhead kettlebell squats, quadriceps
one-arm side deadlift, quadriceps
overhead squat, quadriceps
plie dumbbell squat, quadriceps
power jerk, quadriceps
power snatch from blocks, quadriceps
quad stretch, quadriceps
quadriceps-smr, quadriceps
quick leap, quadriceps
rear leg raises, quadriceps
recumbent bike, quadriceps
reverse band box squat, quadriceps
reverse band power squat, quadriceps
rickshaw deadlift, quadriceps
rocket jump, quadriceps
rope jumping, quadriceps
sandbag load, quadriceps
scissors jump, quadriceps
side hop-sprint, quadriceps
side standing long jump, quadriceps
side to side box shuffle, quadriceps
single leg butt kick, quadriceps
single leg push-off, quadriceps
single-cone sprint drill, quadriceps
single-leg high box squat, quadriceps
single-leg hop progression, quadriceps
single-leg lateral hop, quadriceps
single-leg leg extension, quadriceps
single-leg stride jump, quadriceps
sit squats, quadriceps
skating, quadriceps
sled drag - harness, quadriceps
sled push, quadriceps
smith machine leg press, quadriceps
smith machine pistol squat, quadriceps
smith machine squat, quadriceps
smith single-leg split squat, quadriceps
snatch balance, quadriceps
snatch from blocks, quadriceps
snatch, quadriceps
speed box squat, quadriceps
speed squats, quadriceps
split clean, quadriceps
split jerk, quadriceps
split jump, quadriceps
split squat with dumbbells, quadriceps
squat jerk, quadriceps
squat with bands, quadriceps
squat with chains, quadriceps
squat with plate movers, quadriceps
squats - with bands, quadriceps
stairmaster, quadriceps
standing elevated quad stretch, quadriceps
standing hip flexors, quadriceps
standing long jump, quadriceps
star jump, quadriceps
step mill, quadriceps
stride jump crossover, quadriceps
suspended split squat, quadriceps
tire flip, quadriceps
trail running/walking, quadriceps
trap bar deadlift, quadriceps
weighted jump squat, quadriceps
weighted sissy squat, quadriceps
weighted squat, quadriceps
wide stance barbell squat, quadriceps
yoke walk, quadriceps
zercher squats, quadriceps